<?xml version="1.0" encoding="UTF-8" standalone="no" ?>
<COLLADA xmlns="http://www.collada.org/2005/11/COLLADASchema" version="1.4.1">
    <asset>
        <contributor>
            <authoring_tool>SketchUp 17.2.2555</authoring_tool>
        </contributor>
        <created>2018-03-19T14:49:41Z</created>
        <modified>2018-03-19T14:49:41Z</modified>
        <unit meter="0.0254" name="inch" />
        <up_axis>Z_UP</up_axis>
    </asset>
    <library_cameras>
        <camera id="ID1" name="skp_camera_Last_Saved_SketchUp_View">
            <optics>
                <technique_common>
                    <perspective>
                        <yfov>35</yfov>
                        <aspect_ratio>0</aspect_ratio>
                        <znear>1</znear>
                        <zfar>1000</zfar>
                    </perspective>
                </technique_common>
            </optics>
        </camera>
    </library_cameras>
    <library_visual_scenes>
        <visual_scene id="ID2">
            <node name="SketchUp">
                <instance_geometry url="#ID3">
                    <bind_material>
                        <technique_common>
                            <instance_material symbol="Material2" target="#ID5">
                                <bind_vertex_input semantic="UVSET0" input_semantic="TEXCOORD" input_set="0" />
                            </instance_material>
                        </technique_common>
                    </bind_material>
                </instance_geometry>
                <node name="skp_camera_Last_Saved_SketchUp_View">
                    <matrix>0.9716616 -0.1417136 0.1891849 293.7841 0.2363761 0.5825362 -0.7776747 -931.7361 0 0.8003554 0.5995257 980.1544 0 0 0 1</matrix>
                    <instance_camera url="#ID1" />
                </node>
            </node>
        </visual_scene>
    </library_visual_scenes>
    <library_geometries>
        <geometry id="ID3">
            <mesh>
                <source id="ID6">
                    <float_array id="ID9" count="168">0 125.3784 0 32.45033 -121.1063 0 -1.535443e-14 -125.3784 0 32.45033 121.1063 0 62.68922 -108.5809 0 62.68922 108.5809 0 88.65594 -88.65594 0 88.65594 88.65594 0 108.5809 -62.68922 0 108.5809 62.68922 0 121.1063 -32.45033 0 121.1063 32.45033 0 125.3784 -2.303165e-14 0 32.45033 -121.1063 168.8976 -1.535443e-14 -125.3784 0 32.45033 -121.1063 0 -1.535443e-14 -125.3784 168.8976 0 125.3784 168.8976 -1.535443e-14 -125.3784 0 -1.535443e-14 -125.3784 168.8976 0 125.3784 0 0 125.3784 168.8976 32.45033 121.1063 0 0 125.3784 0 32.45033 121.1063 168.8976 62.68922 108.5809 0 62.68922 108.5809 168.8976 88.65594 88.65594 0 88.65594 88.65594 168.8976 108.5809 62.68922 168.8976 108.5809 62.68922 0 121.1063 32.45033 168.8976 121.1063 32.45033 0 125.3784 -2.303165e-14 168.8976 125.3784 -2.303165e-14 0 121.1063 -32.45033 168.8976 121.1063 -32.45033 0 108.5809 -62.68922 168.8976 108.5809 -62.68922 0 88.65594 -88.65594 168.8976 88.65594 -88.65594 0 62.68922 -108.5809 0 62.68922 -108.5809 168.8976 32.45033 -121.1063 168.8976 0 125.3784 168.8976 -1.535443e-14 -125.3784 168.8976 32.45033 121.1063 168.8976 62.68922 -108.5809 168.8976 62.68922 108.5809 168.8976 88.65594 -88.65594 168.8976 88.65594 88.65594 168.8976 108.5809 -62.68922 168.8976 108.5809 62.68922 168.8976 121.1063 -32.45033 168.8976 121.1063 32.45033 168.8976 125.3784 -2.303165e-14 168.8976</float_array>
                    <technique_common>
                        <accessor count="56" source="#ID9" stride="3">
                            <param name="X" type="float" />
                            <param name="Y" type="float" />
                            <param name="Z" type="float" />
                        </accessor>
                    </technique_common>
                </source>
                <source id="ID7">
                    <float_array id="ID10" count="168">0 0 -1 0 0 -1 0 0 -1 0 0 -1 0 0 -1 0 0 -1 0 0 -1 0 0 -1 0 0 -1 0 0 -1 0 0 -1 0 0 -1 0 0 -1 0.258819 -0.9659258 0 0.1305262 -0.9914449 0 0.258819 -0.9659258 0 0.1305262 -0.9914449 0 -1 6.123234e-17 0 -1 6.123234e-17 0 -1 6.123234e-17 0 -1 6.123234e-17 0 0.1305262 0.9914449 0 0.258819 0.9659258 0 0.1305262 0.9914449 0 0.258819 0.9659258 0 0.5 0.8660254 0 0.5 0.8660254 0 0.7071068 0.7071068 0 0.7071068 0.7071068 0 0.8660254 0.5 0 0.8660254 0.5 0 0.9659258 0.258819 0 0.9659258 0.258819 0 1 -4.188222e-16 0 1 -4.188222e-16 0 0.9659258 -0.258819 0 0.9659258 -0.258819 0 0.8660254 -0.5 0 0.8660254 -0.5 0 0.7071068 -0.7071068 0 0.7071068 -0.7071068 0 0.5 -0.8660254 0 0.5 -0.8660254 0 0 0 1 0 0 1 0 0 1 0 0 1 0 0 1 0 0 1 0 0 1 0 0 1 0 0 1 0 0 1 0 0 1 0 0 1 0 0 1</float_array>
                    <technique_common>
                        <accessor count="56" source="#ID10" stride="3">
                            <param name="X" type="float" />
                            <param name="Y" type="float" />
                            <param name="Z" type="float" />
                        </accessor>
                    </technique_common>
                </source>
                <vertices id="ID8">
                    <input semantic="POSITION" source="#ID6" />
                    <input semantic="NORMAL" source="#ID7" />
                </vertices>
                <triangles count="48" material="Material2">
                    <input offset="0" semantic="VERTEX" source="#ID8" />
                    <p>0 1 2 1 0 3 1 3 4 4 3 5 4 5 6 6 5 7 6 7 8 8 7 9 8 9 10 10 9 11 10 11 12 13 14 15 14 13 16 17 18 19 18 17 20 21 22 23 22 21 24 24 25 22 25 24 26 26 27 25 27 26 28 27 29 30 29 27 28 30 31 32 31 30 29 32 33 34 33 32 31 34 35 36 35 34 33 36 37 38 37 36 35 38 39 40 39 38 37 39 41 40 41 39 42 42 15 41 15 42 13 43 44 45 44 43 46 46 43 47 46 47 48 48 47 49 48 49 50 50 49 51 50 51 52 52 51 53 52 53 54 54 53 55</p>
                </triangles>
            </mesh>
        </geometry>
    </library_geometries>
    <library_materials>
        <material id="ID5" name="material">
            <instance_effect url="#ID4" />
        </material>
    </library_materials>
    <library_effects>
        <effect id="ID4">
            <profile_COMMON>
                <technique sid="COMMON">
                    <lambert>
                        <diffuse>
                            <color>1 1 1 1</color>
                        </diffuse>
                    </lambert>
                </technique>
            </profile_COMMON>
        </effect>
    </library_effects>
    <scene>
        <instance_visual_scene url="#ID2" />
    </scene>
</COLLADA>
